^H:\VISUAL STUDIO\RAYTRACER\RAYTRACER\X64\DEBUG\CAMERA.OBJ|H:\VISUAL STUDIO\RAYTRACER\RAYTRACER\X64\DEBUG\ENGINE.OBJ|H:\VISUAL STUDIO\RAYTRACER\RAYTRACER\X64\DEBUG\MAIN.OBJ|H:\VISUAL STUDIO\RAYTRACER\RAYTRACER\X64\DEBUG\MESH.OBJ|H:\VISUAL STUDIO\RAYTRACER\RAYTRACER\X64\DEBUG\OPENGLRENDERER.OBJ|H:\VISUAL STUDIO\RAYTRACER\RAYTRACER\X64\DEBUG\RENDERER.OBJ|H:\VISUAL STUDIO\RAYTRACER\RAYTRACER\X64\DEBUG\SCENE.OBJ|H:\VISUAL STUDIO\RAYTRACER\RAYTRACER\X64\DEBUG\TEST.CU.OBJ|H:\VISUAL STUDIO\RAYTRACER\RAYTRACER\X64\DEBUG\VULKANRENDERER.OBJ
H:\VISUAL STUDIO\RAYTRACER\X64\DEBUG\RAYTRACER.EXE
H:\VISUAL STUDIO\RAYTRACER\X64\DEBUG\RAYTRACER.ILK
H:\VISUAL STUDIO\RAYTRACER\X64\DEBUG\RAYTRACER.PDB
