^H:\VISUAL STUDIO\RAYTRACER\RAYTRACER\X64\DEBUG\CAMERA.OBJ|H:\VISUAL STUDIO\RAYTRACER\RAYTRACER\X64\DEBUG\ENGINE.OBJ|H:\VISUAL STUDIO\RAYTRACER\RAYTRACER\X64\DEBUG\MAIN.OBJ|H:\VISUAL STUDIO\RAYTRACER\RAYTRACER\X64\DEBUG\MESH.OBJ|H:\VISUAL STUDIO\RAYTRACER\RAYTRACER\X64\DEBUG\OPENGLRENDERER.OBJ|H:\VISUAL STUDIO\RAYTRACER\RAYTRACER\X64\DEBUG\RENDERER.OBJ|H:\VISUAL STUDIO\RAYTRACER\RAYTRACER\X64\DEBUG\SCENE.OBJ|H:\VISUAL STUDIO\RAYTRACER\RAYTRACER\X64\DEBUG\TEST.CU.OBJ|H:\VISUAL STUDIO\RAYTRACER\RAYTRACER\X64\DEBUG\VULKANRENDERER.OBJ
C:\VULKANSDK\1.2.135.0\LIB\VULKAN-1.LIB
H:\VISUAL STUDIO\RAYTRACER\DEPS\LIBX64\GLFW3.LIB
C:\PROGRAM FILES (X86)\WINDOWS KITS\10\LIB\10.0.17763.0\UM\X64\OPENGL32.LIB
C:\PROGRAM FILES (X86)\WINDOWS KITS\10\LIB\10.0.17763.0\UM\X64\GLU32.LIB
H:\VISUAL STUDIO\RAYTRACER\DEPS\LIBX64\GLEW32S.LIB
C:\PROGRAM FILES\NVIDIA GPU COMPUTING TOOLKIT\CUDA\V10.2\LIB\X64\CUDART.LIB
C:\PROGRAM FILES (X86)\WINDOWS KITS\10\LIB\10.0.17763.0\UM\X64\KERNEL32.LIB
C:\PROGRAM FILES (X86)\WINDOWS KITS\10\LIB\10.0.17763.0\UM\X64\USER32.LIB
C:\PROGRAM FILES (X86)\WINDOWS KITS\10\LIB\10.0.17763.0\UM\X64\GDI32.LIB
C:\PROGRAM FILES (X86)\WINDOWS KITS\10\LIB\10.0.17763.0\UM\X64\WINSPOOL.LIB
C:\PROGRAM FILES (X86)\WINDOWS KITS\10\LIB\10.0.17763.0\UM\X64\COMDLG32.LIB
C:\PROGRAM FILES (X86)\WINDOWS KITS\10\LIB\10.0.17763.0\UM\X64\ADVAPI32.LIB
C:\PROGRAM FILES (X86)\WINDOWS KITS\10\LIB\10.0.17763.0\UM\X64\SHELL32.LIB
C:\PROGRAM FILES (X86)\WINDOWS KITS\10\LIB\10.0.17763.0\UM\X64\OLE32.LIB
C:\PROGRAM FILES (X86)\WINDOWS KITS\10\LIB\10.0.17763.0\UM\X64\OLEAUT32.LIB
C:\PROGRAM FILES (X86)\WINDOWS KITS\10\LIB\10.0.17763.0\UM\X64\UUID.LIB
C:\PROGRAM FILES (X86)\WINDOWS KITS\10\LIB\10.0.17763.0\UM\X64\ODBC32.LIB
C:\PROGRAM FILES (X86)\WINDOWS KITS\10\LIB\10.0.17763.0\UM\X64\ODBCCP32.LIB
H:\VISUAL STUDIO\RAYTRACER\RAYTRACER\X64\DEBUG\TEST.CU.OBJ
H:\VISUAL STUDIO\RAYTRACER\RAYTRACER\X64\DEBUG\CAMERA.OBJ
H:\VISUAL STUDIO\RAYTRACER\RAYTRACER\X64\DEBUG\ENGINE.OBJ
H:\VISUAL STUDIO\RAYTRACER\RAYTRACER\X64\DEBUG\MAIN.OBJ
H:\VISUAL STUDIO\RAYTRACER\RAYTRACER\X64\DEBUG\MESH.OBJ
H:\VISUAL STUDIO\RAYTRACER\RAYTRACER\X64\DEBUG\OPENGLRENDERER.OBJ
H:\VISUAL STUDIO\RAYTRACER\RAYTRACER\X64\DEBUG\RENDERER.OBJ
H:\VISUAL STUDIO\RAYTRACER\RAYTRACER\X64\DEBUG\SCENE.OBJ
H:\VISUAL STUDIO\RAYTRACER\RAYTRACER\X64\DEBUG\VULKANRENDERER.OBJ
C:\WINDOWS\SYSTEM32\TZRES.DLL
C:\WINDOWS\GLOBALIZATION\SORTING\SORTDEFAULT.NLS
C:\PROGRAM FILES (X86)\MICROSOFT VISUAL STUDIO\2019\COMMUNITY\VC\TOOLS\MSVC\14.25.28610\LIB\X64\MSVCPRTD.LIB
C:\PROGRAM FILES (X86)\MICROSOFT VISUAL STUDIO\2019\COMMUNITY\VC\TOOLS\MSVC\14.25.28610\LIB\X64\MSVCRTD.LIB
C:\PROGRAM FILES (X86)\MICROSOFT VISUAL STUDIO\2019\COMMUNITY\VC\TOOLS\MSVC\14.25.28610\LIB\X64\OLDNAMES.LIB
C:\PROGRAM FILES (X86)\MICROSOFT VISUAL STUDIO\2019\COMMUNITY\VC\TOOLS\MSVC\14.25.28610\LIB\X64\MSVCRT.LIB
C:\PROGRAM FILES (X86)\MICROSOFT VISUAL STUDIO\2019\COMMUNITY\VC\TOOLS\MSVC\14.25.28610\LIB\X64\LIBCMT.LIB
C:\PROGRAM FILES (X86)\MICROSOFT VISUAL STUDIO\2019\COMMUNITY\VC\TOOLS\MSVC\14.25.28610\LIB\X64\VCRUNTIMED.LIB
C:\PROGRAM FILES (X86)\WINDOWS KITS\10\LIB\10.0.17763.0\UCRT\X64\UCRTD.LIB
